{
    "sportId": 12,
    "last": 672259338,
    "leagues": [
        {
            "id": 199353,
            "events": [
                {
                    "id": 959723926,
                    "periods": [
                        {
                            "lineId": 672259335,
                            "number": 1,
                            "cutoff": "2019-03-05T09:26:51.567Z",
                            "maxTotal": 250,
                            "status": 1,
                            "totals": [
                                {
                                    "points": 26.5,
                                    "over": 2,
                                    "under": 1.689
                                }
                            ]
                        }
                    ]
                },
                {
                    "id": 959723927,
                    "periods": [
                        {
                            "lineId": 672259338,
                            "number": 1,
                            "cutoff": "2019-03-05T11:28:00.433Z",
                            "maxMoneyline": 250,
                            "status": 1,
                            "moneyline": {
                                "home": 2.43,
                                "away": 1.518
                            }
                        }
                    ]
                }
            ]
        }
    ]
}
